%YAML 1.1
%TAG !u! tag:unity3d.com,2011:
--- !u!1045 &1
EditorBuildSettings:
  m_ObjectHideFlags: 0
  serializedVersion: 2
  m_Scenes:
  - enabled: 1
    path: Assets/Scenes/Menu/MenuScene.unity
    guid: 35554dcc033439a43951c80fd7313ad2
  - enabled: 1
    path: Assets/Scenes/JonVr.unity
    guid: 6ecfcdcd875c88d4585a55991011b710
  m_configObjects:
    Unity.XR.Oculus.Settings: {fileID: 11400000, guid: bc364a6f496b0c1488e4b8bb9d44e5a6, type: 2}
    Unity.XR.OpenVR.Settings: {fileID: 11400000, guid: 512aca6695bfe3e4eb3710ab9aa3978e, type: 2}
    com.unity.xr.magicleap.magic_leap_settings: {fileID: 11400000, guid: 5b5ceefa64a6de84596add6bfae9fffd, type: 2}
    com.unity.xr.management.loader_settings: {fileID: 11400000, guid: c392595ce8603c44799fd8c8c4db832a, type: 2}
    com.unity.xr.openxr.settings4: {fileID: 11400000, guid: 8b2f5b1ce3b89dd49b01ed5e6b3aa2d6, type: 2}
